<?xml version="1.0" encoding="utf-8"?>
<!-- Generator: Adobe Illustrator 18.0.0, SVG Export Plug-In . SVG Version: 6.00 Build 0)  -->
<!DOCTYPE svg PUBLIC "-//W3C//DTD SVG 1.1//EN" "http://www.w3.org/Graphics/SVG/1.1/DTD/svg11.dtd">
<svg version="1.1" id="Layer_1" xmlns="http://www.w3.org/2000/svg" xmlns:xlink="http://www.w3.org/1999/xlink" x="0px" y="0px"
	 viewBox="16 0 32 32" enable-background="new 16 0 32 32" xml:space="preserve">
<path fill="#4ACFD9" d="M47.5,0h-31C16.2,0,16,0.2,16,0.5v31c0,0.3,0.2,0.5,0.5,0.5h31c0.3,0,0.5-0.2,0.5-0.5v-31
	C48,0.2,47.8,0,47.5,0z"/>
<path fill="#0295AA" d="M16.5,0C16.2,0,16,0.2,16,0.5v31c0,0.3,0.2,0.5,0.5,0.5h15.6V0H16.5z"/>
<path fill="#CDD4D5" d="M47.8,25.5L41,19c-0.2-0.2-0.5-0.2-0.7,0l-6.4,5.9l-8.4-11.5c-0.1-0.1-0.3-0.2-0.4-0.2c0,0,0,0,0,0
	c-0.2,0-0.3,0.1-0.4,0.2l-8.5,11.9C16,25.4,16,25.5,16,25.6v5.9c0,0.3,0.2,0.5,0.5,0.5h31c0.3,0,0.5-0.2,0.5-0.5v-5.7
	C48,25.7,47.9,25.6,47.8,25.5z"/>
<path fill="#FFD1A9" d="M37.1,9.7c-2.4,0-4.4,1.9-4.4,4.3s2,4.3,4.4,4.3s4.4-1.9,4.4-4.3S39.5,9.7,37.1,9.7z"/>
<g>
	<path fill="#FF8C29" d="M32.7,14c0,2.4,2,4.3,4.4,4.3V9.7C34.7,9.7,32.7,11.6,32.7,14z"/>
	<path fill="#FF8C29" d="M48,26.9H16v4.5c0,0.3,0.2,0.5,0.5,0.5h31c0.3,0,0.5-0.2,0.5-0.5V26.9z"/>
</g>
<g>
	<path fill="#FFFFFF" d="M44.5,6.1c-0.3,0-0.5-0.2-0.5-0.5c0-0.6-0.5-1.1-1.1-1.1S41.7,5,41.7,5.6c0,0.3-0.2,0.5-0.5,0.5
		c-0.3,0-0.5-0.2-0.5-0.5c0-0.6-0.5-1.1-1.1-1.1c-0.6,0-1.1,0.5-1.1,1.1c0,0.3-0.2,0.5-0.5,0.5c-0.3,0-0.5-0.2-0.5-0.5
		c0-0.6-0.5-1.1-1.1-1.1S35.1,5,35.1,5.6c0,0.3-0.2,0.5-0.5,0.5s-0.5-0.2-0.5-0.5c0-1.2,1-2.1,2.2-2.1c0.7,0,1.2,0.3,1.6,0.7
		c0.4-0.5,1-0.7,1.6-0.7c0.7,0,1.2,0.3,1.6,0.7c0.4-0.5,1-0.7,1.6-0.7c1.2,0,2.2,1,2.2,2.1C45,5.9,44.8,6.1,44.5,6.1z"/>
	<path fill="#FFFFFF" d="M26.7,10.4c-0.3,0-0.5-0.2-0.5-0.5c0-0.6-0.5-1.1-1.1-1.1c-0.6,0-1.1,0.5-1.1,1.1c0,0.3-0.2,0.5-0.5,0.5
		s-0.5-0.2-0.5-0.5c0-0.6-0.5-1.1-1.1-1.1c-0.6,0-1.1,0.5-1.1,1.1c0,0.3-0.2,0.5-0.5,0.5s-0.5-0.2-0.5-0.5c0-1.2,1-2.1,2.2-2.1
		c0.7,0,1.2,0.3,1.6,0.7c0.4-0.5,1-0.7,1.6-0.7c1.2,0,2.2,1,2.2,2.1C27.2,10.2,26.9,10.4,26.7,10.4z"/>
</g>
<path fill="#9BAAAB" d="M25.4,13.4c-0.1-0.1-0.3-0.2-0.4-0.2c0,0,0,0,0,0c-0.2,0-0.3,0.1-0.4,0.2l-8.5,11.9C16,25.4,16,25.5,16,25.6
	v5.9c0,0.3,0.2,0.5,0.5,0.5h15.6v-9.5L25.4,13.4z"/>
<path fill="#FD6A33" d="M16,26.9v4.5c0,0.3,0.2,0.5,0.5,0.5h15.6v-5.1H16z"/>
<path fill="#CDD4D5" d="M25.4,13.4c-0.1-0.1-0.3-0.2-0.4-0.2c0,0,0,0,0,0c-0.2,0-0.3,0.1-0.4,0.2l-3.1,4.3h7.1L25.4,13.4z"/>
<path fill="#E6EAEA" d="M41,19c-0.2-0.2-0.5-0.2-0.7,0l-3.9,3.6h8.4L41,19z"/>
</svg>
