<?xml version="1.0" encoding="utf-8"?>
<!-- Generator: Adobe Illustrator 18.0.0, SVG Export Plug-In . SVG Version: 6.00 Build 0)  -->
<!DOCTYPE svg PUBLIC "-//W3C//DTD SVG 1.1//EN" "http://www.w3.org/Graphics/SVG/1.1/DTD/svg11.dtd">
<svg version="1.1" id="Layer_1" xmlns="http://www.w3.org/2000/svg" xmlns:xlink="http://www.w3.org/1999/xlink" x="0px" y="0px"
	 viewBox="16 0 32 32" enable-background="new 16 0 32 32" xml:space="preserve">
<path fill="#E6EAEA" d="M41.4,8.7H16.7c-0.4,0-0.7,0.2-0.7,0.5v16.6l8,6.2h17.4c0.4,0,0.7-0.2,0.7-0.5V9.2
	C42.1,8.9,41.8,8.7,41.4,8.7z"/>
<path fill="#CDD4D5" d="M16.7,8.7c-0.4,0-0.7,0.2-0.7,0.5v16.6l8,6.2h4.5V8.7H16.7z"/>
<path id="SVGCleanerId_0" fill="#9BAAAB" d="M23.3,25.8H16l8,6.2v-5.7C24,26,23.7,25.8,23.3,25.8z"/>
<g>
	<path fill="#FF8C29" d="M37.6,13.8H20.5c-0.4,0-0.7-0.2-0.7-0.5s0.3-0.5,0.7-0.5h17.1c0.4,0,0.7,0.2,0.7,0.5
		C38.2,13.6,37.9,13.8,37.6,13.8z"/>
	<path fill="#FF8C29" d="M37.6,18.1H20.5c-0.4,0-0.7-0.2-0.7-0.5c0-0.3,0.3-0.5,0.7-0.5h17.1c0.4,0,0.7,0.2,0.7,0.5
		C38.2,17.9,37.9,18.1,37.6,18.1z"/>
	<path fill="#FF8C29" d="M37.6,22.5H20.5c-0.4,0-0.7-0.2-0.7-0.5c0-0.3,0.3-0.5,0.7-0.5h17.1c0.4,0,0.7,0.2,0.7,0.5
		C38.2,22.3,37.9,22.5,37.6,22.5z"/>
	<path fill="#FF8C29" d="M37.6,26.8H20.5c-0.4,0-0.7-0.2-0.7-0.5s0.3-0.5,0.7-0.5h17.1c0.4,0,0.7,0.2,0.7,0.5S37.9,26.8,37.6,26.8z"
		/>
</g>
<g>
	<path fill="#F0353D" d="M20.5,12.8c-0.4,0-0.7,0.2-0.7,0.5s0.3,0.5,0.7,0.5h8v-1H20.5z"/>
	<path fill="#F0353D" d="M20.5,17.1c-0.4,0-0.7,0.2-0.7,0.5s0.3,0.5,0.7,0.5h8v-1H20.5z"/>
	<path fill="#F0353D" d="M19.8,22c0,0.3,0.3,0.5,0.7,0.5h8v-1h-8C20.1,21.5,19.8,21.7,19.8,22z"/>
	<path fill="#F0353D" d="M19.8,26.3c0,0.3,0.3,0.5,0.7,0.5h8v-1h-8C20.1,25.8,19.8,26,19.8,26.3z"/>
</g>
<g>
	<path id="SVGCleanerId_0_1_" fill="#9BAAAB" d="M23.3,25.8H16l8,6.2v-5.7C24,26,23.7,25.8,23.3,25.8z"/>
</g>
<path fill="#4ACFD9" d="M47.3,0H21.5c-0.4,0-0.7,0.2-0.7,0.5v7.1c0,0.2,0.2,0.4,0.4,0.5c0.3,0.1,0.6,0,0.7-0.2l2-2h6.6v17.4
	c0,0.3,0.3,0.5,0.7,0.5h6.3c0.4,0,0.7-0.2,0.7-0.5V5.9h6.6l2,2c0.2,0.2,0.5,0.2,0.7,0.2C47.8,8,48,7.8,48,7.6V0.5
	C48,0.2,47.7,0,47.3,0z"/>
<path fill="#0295AA" d="M21.5,0c-0.4,0-0.7,0.2-0.7,0.5v7.1c0,0.2,0.2,0.4,0.4,0.5c0.3,0.1,0.6,0,0.7-0.2l2-2h6.6v17.4
	c0,0.3,0.3,0.5,0.7,0.5h2.9V0H21.5z"/>
<g>
	<path fill="#FFFFFF" d="M45.6,2.9h-4.5c-0.4,0-0.7-0.2-0.7-0.5s0.3-0.5,0.7-0.5h4.5c0.4,0,0.7,0.2,0.7,0.5S46,2.9,45.6,2.9z"/>
	<path fill="#FFFFFF" d="M38.6,2.9h-3.1c-0.4,0-0.7-0.2-0.7-0.5s0.3-0.5,0.7-0.5h3.1c0.4,0,0.7,0.2,0.7,0.5S39,2.9,38.6,2.9z"/>
</g>
</svg>
